{
    "salmon_version": "0.9.1",
    "samp_type": "none",
    "quant_errors": [],
    "num_libraries": 1,
    "library_types": [
        "IU"
    ],
    "frag_dist_length": 1001,
    "seq_bias_correct": false,
    "gc_bias_correct": false,
    "num_bias_bins": 4096,
    "mapping_type": "mapping",
    "num_targets": 87179,
    "serialized_eq_classes": false,
    "eq_class_properties": [],
    "length_classes": [
        368,
        478,
        757,
        1370,
        14658
    ],
    "index_seq_hash": "6b9f3776e7cde33646635f35446481e81aa15f2108352f4b471c95b910774a62",
    "index_name_hash": "1f711cef16ad2c716f74b917cacefa3f96d366ef71676089e7ae33eac03b7927",
    "num_bootstraps": 0,
    "num_processed": 29283934,
    "num_mapped": 20481598,
    "percent_mapped": 69.94141565815578,
    "call": "quant",
    "start_time": "Sun Dec 16 00:58:11 2018",
    "end_time": "Sun Dec 16 01:00:06 2018"
}