﻿,temp,pH,treatment,8C,12C,7.9,7.6,Control,Oil,CEWAF,Disp
Exp1CT1CEWAF128,1,3,5,1,0,1,0,0,0,1,0
Exp1CT1CEWAF142,1,3,5,1,0,1,0,0,0,1,0
Exp1CT1CEWAF144,1,3,5,1,0,1,0,0,0,1,0
Exp1CT1CEWAF145,1,3,5,1,0,1,0,0,0,1,0
Exp1CT1Control128,1,3,6,1,0,1,0,1,0,0,0
Exp1CT1Control142,1,3,6,1,0,1,0,1,0,0,0
Exp1CT1Control144,1,3,6,1,0,1,0,1,0,0,0
Exp1CT1Control145,1,3,6,1,0,1,0,1,0,0,0
Exp1CT1WAFd128,1,3,7,1,0,1,0,0,0,0,1
Exp1CT1WAFd142,1,3,7,1,0,1,0,0,0,0,1
Exp1CT1WAFd144,1,3,7,1,0,1,0,0,0,0,1
Exp1CT1WAFd145,1,3,7,1,0,1,0,0,0,0,1
Exp1CT1WAFoil128,1,3,8,1,0,1,0,0,1,0,0
Exp1CT1WAFoil142,1,3,8,1,0,1,0,0,1,0,0
Exp1CT1WAFoil144,1,3,8,1,0,1,0,0,1,0,0
Exp1CT1WAFoil145,1,3,8,1,0,1,0,0,1,0,0
Exp2T1CEWAF128,1,4,5,1,0,0,1,0,0,1,0
Exp2T1CEWAF142,1,4,5,1,0,0,1,0,0,1,0
Exp2T1CEWAF144,1,4,5,1,0,0,1,0,0,1,0
Exp2T1CEWAF145,1,4,5,1,0,0,1,0,0,1,0
Exp2T1Control128,1,4,6,1,0,0,1,1,0,0,0
Exp2T1Control142,1,4,6,1,0,0,1,1,0,0,0
Exp2T1Control144,1,4,6,1,0,0,1,1,0,0,0
Exp2T1Control145,1,4,6,1,0,0,1,1,0,0,0
Exp2T1WAFd128,1,4,7,1,0,0,1,0,0,0,1
Exp2T1WAFd142,1,4,7,1,0,0,1,0,0,0,1
Exp2T1WAFd144,1,4,7,1,0,0,1,0,0,0,1
Exp2T1WAFd145,1,4,7,1,0,0,1,0,0,0,1
Exp2T1WAFoil128,1,4,8,1,0,0,1,0,1,0,0
Exp2T1WAFoil142,1,4,8,1,0,0,1,0,1,0,0
Exp2T1WAFoil144,1,4,8,1,0,0,1,0,1,0,0
Exp2T1WAFoil145,1,4,8,1,0,0,1,0,1,0,0
Exp3T1CEWAF128,2,3,5,0,1,1,0,0,0,1,0
Exp3T1CEWAF142,2,3,5,0,1,1,0,0,0,1,0
Exp3T1CEWAF144,2,3,5,0,1,1,0,0,0,1,0
Exp3T1CEWAF145,2,3,5,0,1,1,0,0,0,1,0
Exp3T1Control128,2,3,6,0,1,1,0,1,0,0,0
Exp3T1Control142,2,3,6,0,1,1,0,1,0,0,0
Exp3T1Control144,2,3,6,0,1,1,0,1,0,0,0
Exp3T1Control145,2,3,6,0,1,1,0,1,0,0,0
Exp3T1WAFd128,2,3,7,0,1,1,0,0,0,0,1
Exp3T1WAFd142,2,3,7,0,1,1,0,0,0,0,1
Exp3T1WAFd144,2,3,7,0,1,1,0,0,0,0,1
Exp3T1WAFd145,2,3,7,0,1,1,0,0,0,0,1
Exp3T1WAFoil128,2,3,8,0,1,1,0,0,1,0,0
Exp3T1WAFoil142,2,3,8,0,1,1,0,0,1,0,0
Exp3T1WAFoil144,2,3,8,0,1,1,0,0,1,0,0
Exp3T1WAFoil145,2,3,8,0,1,1,0,0,1,0,0
Exp4T1CEWAF128,2,4,5,0,1,0,1,0,0,1,0
Exp4T1CEWAF142,2,4,5,0,1,0,1,0,0,1,0
Exp4T1CEWAF144,2,4,5,0,1,0,1,0,0,1,0
Exp4T1CEWAF145,2,4,5,0,1,0,1,0,0,1,0
Exp4T1Control128,2,4,6,0,1,0,1,1,0,0,0
Exp4T1Control142,2,4,6,0,1,0,1,1,0,0,0
Exp4T1Control144,2,4,6,0,1,0,1,1,0,0,0
Exp4T1Control145,2,4,6,0,1,0,1,1,0,0,0
Exp4T1WAFd128,2,4,7,0,1,0,1,0,0,0,1
Exp4T1WAFd142,2,4,7,0,1,0,1,0,0,0,1
Exp4T1WAFd144,2,4,7,0,1,0,1,0,0,0,1
Exp4T1WAFd145,2,4,7,0,1,0,1,0,0,0,1
Exp4T1WAFoil128,2,4,8,0,1,0,1,0,1,0,0
Exp4T1WAFoil142,2,4,8,0,1,0,1,0,1,0,0
Exp4T1WAFoil144,2,4,8,0,1,0,1,0,1,0,0
Exp4T1WAFoil145,2,4,8,0,1,0,1,0,1,0,0