{
    "read_files": "( /dev/fd/63, /dev/fd/62 )",
    "expected_format": "IU",
    "compatible_fragment_ratio": 0.9946677660932632,
    "num_compatible_fragments": 22231864,
    "num_assigned_fragments": 22351045,
    "num_consistent_mappings": 20499626,
    "num_inconsistent_mappings": 3486369,
    "strand_mapping_bias": 0.5001930279118263,
    "MSF": 0,
    "OSF": 14545,
    "ISF": 10245856,
    "MSR": 0,
    "OSR": 14435,
    "ISR": 10253770,
    "SF": 1679524,
    "SR": 1684482,
    "MU": 0,
    "OU": 0,
    "IU": 0,
    "U": 0
}