{
    "read_files": "( /dev/fd/63, /dev/fd/62 )",
    "expected_format": "IU",
    "compatible_fragment_ratio": 0.9946698077647795,
    "num_compatible_fragments": 24976695,
    "num_assigned_fragments": 25110539,
    "num_consistent_mappings": 22742516,
    "num_inconsistent_mappings": 4202775,
    "strand_mapping_bias": 0.5004136305763179,
    "MSF": 0,
    "OSF": 15022,
    "ISF": 11361851,
    "MSR": 0,
    "OSR": 15035,
    "ISR": 11380665,
    "SF": 2033814,
    "SR": 2032587,
    "MU": 0,
    "OU": 0,
    "IU": 0,
    "U": 0
}