"","baseMean","log2FoldChange","lfcSE","stat","pvalue","padj","GeneID_CEWAF_vs_Control"
"UniRef90_UPI00077B1E6C",191.28679158569,-16.9697072410259,2.2580360768562,-7.51525071497191,5.68019729839192e-14,1.23425007096758e-09,"UniRef90_UPI00077B1E6C"
"UniRef90_UPI0009E29122",1.41934382673588,-29.2891323838255,4.71820244661868,-6.20768877876693,5.37695001340211e-10,5.84178734206073e-06,"UniRef90_UPI0009E29122"
"UniRef90_UPI00077A4F42",0.971037214090089,-22.0459902316964,3.8063229305612,-5.79193900094178,6.95784149307452e-09,5.03956459343387e-05,"UniRef90_UPI00077A4F42"
"UniRef90_UPI0009E42DAF",168.396791591293,-2.73790982669191,0.478903729016466,-5.71703593186633,1.08398202272353e-08,5.88846134293992e-05,"UniRef90_UPI0009E42DAF"
"UniRef90_UPI00077B17E2",1.67370922878759,-16.7769883247586,3.15087457974349,-5.32454970839379,1.01203424934424e-07,0.000338978281293211,"UniRef90_UPI00077B17E2"
"UniRef90_UPI0009E39C9C",151.602380261566,-2.83727630172096,0.534256042005153,-5.31070512758674,1.09201894659325e-07,0.000338978281293211,"UniRef90_UPI0009E39C9C"
"UniRef90_UPI000A2A9BC5",1.23950404348377,-19.2836395151938,3.58995500495429,-5.3715546541897,7.80607010870358e-08,0.000338978281293211,"UniRef90_UPI000A2A9BC5"
"UniRef90_UPI0009E25F98",281.607369910124,3.59918261449989,0.682354276500747,5.27465385423719,1.33006893634789e-07,0.000361263348973792,"UniRef90_UPI0009E25F98"
"UniRef90_UPI0009E1AD3E",267.82740960045,-2.25744895026255,0.431179373229352,-5.23552166550828,1.64519523817295e-07,0.000397204970336222,"UniRef90_UPI0009E1AD3E"
"UniRef90_UPI0009E2E80C",184.151454460895,-1.79811888686374,0.366204779186582,-4.91014587755448,9.10086653800092e-07,0.00197752729004222,"UniRef90_UPI0009E2E80C"
"UniRef90_A0A0L8HR25",2.25027262938975,-10.7945925951033,2.41784672990821,-4.46454792256955,8.02379886734033e-06,0.0134114711991106,"UniRef90_A0A0L8HR25"
"UniRef90_A7RZX7",8.25581369087968,-12.1816574521369,2.72399561061137,-4.47198130741588,7.74982030770696e-06,0.0134114711991106,"UniRef90_A7RZX7"
"UniRef90_UPI0009E29E94",8621.29340336237,2.0333002311035,0.452024717029689,4.49820586021175,6.85293250261545e-06,0.0134114711991106,"UniRef90_UPI0009E29E94"
"UniRef90_UPI00077AF0F4",198.254310273134,-1.81420772276461,0.418947091635925,-4.33039817911231,1.48839957524584e-05,0.0216947932505589,"UniRef90_UPI00077AF0F4"
"UniRef90_UPI0009E29650",62.201711509232,-1.70950224401275,0.394892184337489,-4.32903539704333,1.49763863389196e-05,0.0216947932505589,"UniRef90_UPI0009E29650"
"UniRef90_UPI0009E650D0",86.5259018289448,-3.53481747657784,0.821586321044228,-4.30242980687059,1.68935198493153e-05,0.0229424558003608,"UniRef90_UPI0009E650D0"
"UniRef90_UPI0009E45A3C",1.18894464327517,19.6050885188233,4.60894279335627,4.25370619637193,2.10261142027062e-05,0.0268750844418001,"UniRef90_UPI0009E45A3C"
"UniRef90_UPI0009E2CF47",549.623549875899,-3.30563983432394,0.793892926794185,-4.16383585589108,3.12945132625675e-05,0.0362051014211461,"UniRef90_UPI0009E2CF47"
"UniRef90_UPI0009E38C8B",1327.19722934883,-2.0190893540383,0.485218087644554,-4.16119968618602,3.1658011275336e-05,0.0362051014211461,"UniRef90_UPI0009E38C8B"
"Sakowv30004654m",1.01613772061901,22.3634038824846,5.46915100264016,4.08900830708257,4.33221340137793e-05,0.0460243880471842,"Sakowv30004654m"
"UniRef90_UPI0009E4A22D",619.259714158705,-1.08000066634053,0.264519086632442,-4.08288369693802,4.44802866671668e-05,0.0460243880471842,"UniRef90_UPI0009E4A22D"
"EDO38358",2.3714538880657,-15.3636342159402,3.7731391025394,-4.07184410603896,4.66423933435108e-05,0.0460678438618702,"EDO38358"
"UniRef90_UPI0009E33BC5",132.460128505606,-1.04218514471165,0.256937987697746,-4.05617384198417,4.98831379185262e-05,0.0471265523405068,"UniRef90_UPI0009E33BC5"
