"","x"
"1","265495"
"2","76215"
"3","Death"
"4","EDO34607"
"5","EDO38094"
"6","EDO41505"
"7","EDO43860"
"8","EDO43942"
"9","EDO47723"
"10","EDO48034"
"11","EDO49280"
"12","EKC33216"
"13","ENSCPOP00000001325"
"14","Sakowv30019383m"
"15","Sakowv30036073m"
"16","SPU_013343-tr"
"17","UniRef90_A0A086TDB9"
"18","UniRef90_A0A0L8GHD2"
"19","UniRef90_A0A1C4ENK1"
"20","UniRef90_A0A1S3HA98"
"21","UniRef90_A0A1S3PSQ4"
"22","UniRef90_UPI000779FCBB"
"23","UniRef90_UPI00077A15CC"
"24","UniRef90_UPI00077A18B1"
"25","UniRef90_UPI00077A2D1E"
"26","UniRef90_UPI00077A310A"
"27","UniRef90_UPI00077A530D"
"28","UniRef90_UPI00077A6524"
"29","UniRef90_UPI00077A90F3"
"30","UniRef90_UPI00077AC584"
"31","UniRef90_UPI00077AEF28"
"32","UniRef90_UPI00077AF59E"
"33","UniRef90_UPI00077B043E"
"34","UniRef90_UPI0008DE8CBD"
"35","UniRef90_UPI0009E18CDA"
"36","UniRef90_UPI0009E1934C"
"37","UniRef90_UPI0009E19384"
"38","UniRef90_UPI0009E199EA"
"39","UniRef90_UPI0009E19ABC"
"40","UniRef90_UPI0009E1E741"
"41","UniRef90_UPI0009E1EEC2"
"42","UniRef90_UPI0009E1F36F"
"43","UniRef90_UPI0009E20532"
"44","UniRef90_UPI0009E211C3"
"45","UniRef90_UPI0009E22388"
"46","UniRef90_UPI0009E23A7D"
"47","UniRef90_UPI0009E2682B"
"48","UniRef90_UPI0009E26DF2"
"49","UniRef90_UPI0009E2712A"
"50","UniRef90_UPI0009E27410"
"51","UniRef90_UPI0009E27B32"
"52","UniRef90_UPI0009E28BE5"
"53","UniRef90_UPI0009E294BC"
"54","UniRef90_UPI0009E2A60D"
"55","UniRef90_UPI0009E2D167"
"56","UniRef90_UPI0009E2DD65"
"57","UniRef90_UPI0009E2E0BA"
"58","UniRef90_UPI0009E2E7BE"
"59","UniRef90_UPI0009E2F022"
"60","UniRef90_UPI0009E30B70"
"61","UniRef90_UPI0009E30EDC"
"62","UniRef90_UPI0009E30F3C"
"63","UniRef90_UPI0009E32352"
"64","UniRef90_UPI0009E33663"
"65","UniRef90_UPI0009E34C99"
"66","UniRef90_UPI0009E35075"
"67","UniRef90_UPI0009E36577"
"68","UniRef90_UPI0009E37CDB"
"69","UniRef90_UPI0009E37EE9"
"70","UniRef90_UPI0009E3976A"
"71","UniRef90_UPI0009E39A63"
"72","UniRef90_UPI0009E3A489"
"73","UniRef90_UPI0009E3A814"
"74","UniRef90_UPI0009E3A8FC"
"75","UniRef90_UPI0009E3AF14"
"76","UniRef90_UPI0009E3BDA8"
"77","UniRef90_UPI0009E3C8BD"
"78","UniRef90_UPI0009E3D6FA"
"79","UniRef90_UPI0009E3D9F2"
"80","UniRef90_UPI0009E3E4E5"
"81","UniRef90_UPI0009E3E7D3"
"82","UniRef90_UPI0009E3EFD5"
"83","UniRef90_UPI0009E3F3BE"
"84","UniRef90_UPI0009E3F8DA"
"85","UniRef90_UPI0009E3FBE6"
"86","UniRef90_UPI0009E418C5"
"87","UniRef90_UPI0009E4203C"
"88","UniRef90_UPI0009E4252B"
"89","UniRef90_UPI0009E42D15"
"90","UniRef90_UPI0009E4300E"
"91","UniRef90_UPI0009E43867"
"92","UniRef90_UPI0009E43C5B"
"93","UniRef90_UPI0009E4417E"
"94","UniRef90_UPI0009E44D02"
"95","UniRef90_UPI0009E453D9"
"96","UniRef90_UPI0009E471A8"
"97","UniRef90_UPI0009E47D98"
"98","UniRef90_UPI0009E47E4F"
"99","UniRef90_UPI0009E487C2"
"100","UniRef90_UPI0009E48EAD"
"101","UniRef90_UPI0009E49538"
"102","UniRef90_UPI0009E4B4BA"
"103","UniRef90_UPI0009E4BE2F"
"104","UniRef90_UPI0009E4C1AF"
"105","UniRef90_UPI0009E4CA3B"
"106","UniRef90_UPI0009E4CAE4"
"107","UniRef90_UPI0009E4D128"
"108","UniRef90_UPI0009E4DE70"
"109","UniRef90_UPI0009E4EEF6"
"110","UniRef90_UPI0009E50AB3"
"111","UniRef90_UPI0009E51224"
"112","UniRef90_UPI0009E51BD9"
"113","UniRef90_UPI0009E521CE"
"114","UniRef90_UPI0009E53FF6"
"115","UniRef90_UPI0009E54202"
"116","UniRef90_UPI0009E580AB"
"117","UniRef90_UPI0009E582CE"
"118","UniRef90_UPI0009E587E1"
"119","UniRef90_UPI0009E58A61"
"120","UniRef90_UPI0009E594C9"
"121","UniRef90_UPI0009E5B649"
"122","UniRef90_UPI0009E5CA0E"
"123","UniRef90_UPI0009E5CE06"
"124","UniRef90_UPI0009E5CF2E"
"125","UniRef90_UPI0009E5CF3F"
"126","UniRef90_UPI0009E5DD3B"
"127","UniRef90_UPI0009E5E51F"
"128","UniRef90_UPI0009E5E9EE"
"129","UniRef90_UPI0009E5F82F"
"130","UniRef90_UPI0009E60113"
"131","UniRef90_UPI0009E604F2"
"132","UniRef90_UPI0009E60539"
"133","UniRef90_UPI0009E61150"
"134","UniRef90_UPI0009E61A97"
"135","UniRef90_UPI0009E61E94"
"136","UniRef90_UPI0009E61F42"
"137","UniRef90_UPI0009E62E02"
"138","UniRef90_UPI0009E644AB"
"139","UniRef90_UPI0009E64AA3"
"140","UniRef90_UPI0009E64FF8"
"141","UniRef90_UPI0009E655EF"
"142","UniRef90_UPI000A2A5C31"
"143","UniRef90_UPI000A2A5FCF"
"144","UniRef90_UPI000A2A848C"
"145","UniRef90_UPI000A2A90E3"
"146","Znev_17127"
