"","x"
"1","66627"
"2","97605"
"3","EDO38520"
"4","ENSAPLP00000009862"
"5","OABI000192-RA"
"6","PAC:15721527"
"7","UniRef90_A0A126SNS7"
"8","UniRef90_A0A1S3HFW1"
"9","UniRef90_A0A1V0CMH4"
"10","UniRef90_A0A223CBS6"
"11","UniRef90_B8V7R6"
"12","UniRef90_P05997"
"13","UniRef90_Q6T6S5"
"14","UniRef90_UPI00077A29DA"
"15","UniRef90_UPI00077A343E"
"16","UniRef90_UPI0009DE9792"
"17","UniRef90_UPI0009E19473"
"18","UniRef90_UPI0009E1B14B"
"19","UniRef90_UPI0009E1B165"
"20","UniRef90_UPI0009E1C96A"
"21","UniRef90_UPI0009E2739F"
"22","UniRef90_UPI0009E288C1"
"23","UniRef90_UPI0009E2A70C"
"24","UniRef90_UPI0009E2BCA4"
"25","UniRef90_UPI0009E2F91E"
"26","UniRef90_UPI0009E32374"
"27","UniRef90_UPI0009E328C5"
"28","UniRef90_UPI0009E38C8B"
"29","UniRef90_UPI0009E406A3"
"30","UniRef90_UPI0009E42BA3"
"31","UniRef90_UPI0009E42DAF"
"32","UniRef90_UPI0009E457D0"
"33","UniRef90_UPI0009E46BAF"
"34","UniRef90_UPI0009E48104"
"35","UniRef90_UPI0009E4A2B6"
"36","UniRef90_UPI0009E4CBED"
"37","UniRef90_UPI0009E4EA6B"
"38","UniRef90_UPI0009E5252E"
"39","UniRef90_UPI0009E52CA7"
"40","UniRef90_UPI0009E5307C"
"41","UniRef90_UPI0009E53821"
"42","UniRef90_UPI0009E566D6"
"43","UniRef90_UPI0009E57471"
"44","UniRef90_UPI0009E5E6BE"
"45","UniRef90_UPI0009E60969"
"46","UniRef90_UPI000A2A86E8"
"47","UniRef90_UPI000A2A958B"
