class
biological_process|cellular process|cellular component organization|cellular component assembly|protein-containing complex assembly|cellular protein-containing complex assembly|axonemal dynein complex assembly
biological_process|cellular process|cellular component organization|organelle organization|organelle assembly
biological_process|cellular process|cellular component organization|cellular component assembly|protein-containing complex assembly|cellular protein-containing complex assembly|axonemal dynein complex assembly|outer dynein arm assembly
biological_process|cellular process|cellular component organization|cellular component assembly|protein-containing complex assembly|cellular protein-containing complex assembly|axonemal dynein complex assembly|inner dynein arm assembly
biological_process|cellular process|cellular component organization|organelle organization|cilium organization|cilium assembly|motile cilium assembly
biological_process|cellular process|movement of cell or subcellular component|microtubule-based movement|cilium movement|epithelial cilium movement|epithelial cilium movement involved in determination of left/right asymmetry
biological_process|cellular process|movement of cell or subcellular component|microtubule-based movement|cilium movement|cilium movement involved in cell motility
biological_process|cellular process|movement of cell or subcellular component|microtubule-based movement|cilium movement
biological_process|cellular process|movement of cell or subcellular component|microtubule-based movement|cilium movement|epithelial cilium movement
biological_process|cellular process|movement of cell or subcellular component|microtubule-based movement

biological_process|reproductive process|developmental process involved in reproduction|sperm axoneme assembly

biological_process|metabolic process|cellular metabolic process|cellular aromatic compound metabolic process|nucleobase-containing compound metabolic process|nucleobase-containing small molecule metabolic process|nucleobase-containing small molecule interconversion
biological_process|metabolic process|organic substance metabolic process|macromolecule metabolic process|protein metabolic process|protein modification process|cellular protein modification process|peptidyl-amino acid modification|peptidyl-glutamic acid modification|protein polyglycylation
biological_process|metabolic process|organic substance metabolic process|macromolecule metabolic process|protein metabolic process|protein modification process|cellular protein modification process|peptidyl-amino acid modification|peptidyl-glutamic acid modification|protein polyglutamylation
biological_process|metabolic process|organic substance metabolic process|macromolecule metabolic process|protein metabolic process|protein modification process|cellular protein modification process|peptidyl-amino acid modification|peptidyl-glutamic acid modification

biological_process|localization|establishment of localization|transport|intracellular transport|cytoskeleton-dependent intracellular transport|transport along microtubule|intraciliary transport|intraciliary transport involved in cilium assembly

biological_process|biological regulation|regulation of biological process|regulation of cellular process|regulation of microtubule-based process|regulation of microtubule-based movement