class
biological_process|localization|establishment of localization|transport|nitrogen compound transport|amide transport|peptide transport|protein transport|intracellular protein transport|protein targeting
biological_process|localization|establishment of localization|transport|nitrogen compound transport|amide transport|peptide transport|protein transport|intracellular protein transport
biological_process|localization|establishment of localization|transport|nitrogen compound transport|amide transport|peptide transport|protein transport|intracellular protein transport|protein targeting|protein targeting to membrane
biological_process|localization|establishment of localization|transport|nitrogen compound transport|amide transport|peptide transport|protein transport|intracellular protein transport|protein targeting|protein targeting to membrane|cotranslational protein targeting to membrane
biological_process|localization|establishment of localization|transport|nitrogen compound transport|amide transport|peptide transport|protein transport|intracellular protein transport|protein targeting|protein targeting to membrane|cotranslational protein targeting to membrane|SRP-dependent cotranslational protein targeting to membrane
biological_process|localization|establishment of localization|transport|nitrogen compound transport|amide transport|peptide transport|protein transport|intracellular protein transport|protein targeting|protein targeting to ER
biological_process|localization|macromolecule localization|protein localization|cellular protein localization|protein localization to organelle|protein localization to endoplasmic reticulum|establishment of protein localization to endoplasmic reticulum
biological_process|localization|macromolecule localization|protein localization|cellular protein localization|protein localization to organelle|protein localization to endoplasmic reticulum
biological_process|localization|macromolecule localization|protein localization|cellular protein localization|protein localization to organelle|establishment of protein localization to organelle
biological_process|localization|macromolecule localization|protein localization|establishment of protein localization|establishment of protein localization to membrane

biological_process|metabolic process|cellular metabolic process|cellular aromatic compound metabolic process|nucleobase-containing compound metabolic process|nucleic acid metabolic process|RNA metabolic process|RNA processing|RNA splicing
"biological_process|metabolic process|cellular metabolic process|cellular aromatic compound metabolic process|nucleobase-containing compound metabolic process|nucleic acid metabolic process|RNA metabolic process|RNA processing|RNA splicing|RNA splicing, via transesterification reactions|RNA splicing, via transesterification reactions with bulged adenosine as nucleophile"
"biological_process|metabolic process|cellular metabolic process|cellular aromatic compound metabolic process|nucleobase-containing compound metabolic process|nucleic acid metabolic process|RNA metabolic process|RNA processing|RNA splicing|RNA splicing, via transesterification reactions|RNA splicing, via transesterification reactions with bulged adenosine as nucleophile|mRNA splicing, via spliceosome"
biological_process|metabolic process|cellular metabolic process|cellular aromatic compound metabolic process|nucleobase-containing compound metabolic process|nucleic acid metabolic process|RNA metabolic process|RNA processing|mRNA processing
"biological_process|metabolic process|cellular metabolic process|cellular aromatic compound metabolic process|nucleobase-containing compound metabolic process|nucleic acid metabolic process|RNA metabolic process|RNA processing|RNA splicing|RNA splicing, via transesterification reactions"
biological_process|metabolic process|cellular metabolic process|cellular aromatic compound metabolic process|nucleobase-containing compound metabolic process|nucleic acid metabolic process|RNA metabolic process|RNA catabolic process|mRNA catabolic process
biological_process|metabolic process|cellular metabolic process|cellular aromatic compound metabolic process|nucleobase-containing compound metabolic process|nucleic acid metabolic process|RNA metabolic process|RNA catabolic process
biological_process|metabolic process|cellular metabolic process|cellular aromatic compound metabolic process|nucleobase-containing compound metabolic process|nucleic acid metabolic process|RNA metabolic process|RNA catabolic process|mRNA catabolic process|nuclear-transcribed mRNA catabolic process
"biological_process|metabolic process|cellular metabolic process|cellular aromatic compound metabolic process|nucleobase-containing compound metabolic process|nucleic acid metabolic process|RNA metabolic process|RNA processing|RNA splicing|RNA splicing, via transesterification reactions|RNA splicing, via transesterification reactions with bulged adenosine as nucleophile|mRNA splicing, via spliceosome|mRNA cis splicing, via spliceosome"
biological_process|metabolic process|cellular metabolic process|cellular aromatic compound metabolic process|nucleobase-containing compound metabolic process|nucleic acid metabolic process|RNA metabolic process|RNA phosphodiester bond hydrolysis
"biological_process|metabolic process|cellular metabolic process|cellular aromatic compound metabolic process|nucleobase-containing compound metabolic process|nucleic acid metabolic process|RNA metabolic process|RNA catabolic process|mRNA catabolic process|nuclear-transcribed mRNA catabolic process|nuclear-transcribed mRNA catabolic process, nonsense-mediated decay"
biological_process|metabolic process|cellular metabolic process|cellular aromatic compound metabolic process|nucleobase-containing compound metabolic process|nucleic acid metabolic process|RNA metabolic process|ncRNA metabolic process|rRNA metabolic process
biological_process|metabolic process|cellular metabolic process|cellular aromatic compound metabolic process|nucleobase-containing compound metabolic process|nucleic acid metabolic process|RNA metabolic process|ncRNA metabolic process|rRNA metabolic process|rRNA processing
biological_process|metabolic process|cellular metabolic process|cellular aromatic compound metabolic process|nucleobase-containing compound metabolic process|nucleic acid metabolic process|RNA metabolic process|RNA processing
biological_process|metabolic process|cellular metabolic process|cellular aromatic compound metabolic process|nucleobase-containing compound metabolic process|nucleic acid metabolic process|RNA metabolic process|ncRNA metabolic process
biological_process|metabolic process|cellular metabolic process|cellular aromatic compound metabolic process|nucleobase-containing compound metabolic process|nucleic acid metabolic process|RNA metabolic process|RNA processing|ncRNA processing
biological_process|metabolic process|cellular metabolic process|cellular aromatic compound metabolic process|nucleobase-containing compound metabolic process|nucleobase-containing compound catabolic process
biological_process|metabolic process|organic substance metabolic process|macromolecule metabolic process|macromolecule biosynthetic process|cellular macromolecule biosynthetic process|translation|cytoplasmic translation
"biological_process|metabolic process|organic substance metabolic process|macromolecule metabolic process|macromolecule biosynthetic process|RNA biosynthetic process|DNA-templated transcription, initiation|transcription initiation from RNA polymerase II promoter"
"biological_process|metabolic process|organic substance metabolic process|macromolecule metabolic process|macromolecule biosynthetic process|RNA biosynthetic process|DNA-templated transcription, initiation"
biological_process|metabolic process|organic substance metabolic process|macromolecule metabolic process|macromolecule biosynthetic process|cellular macromolecule biosynthetic process|translation
biological_process|metabolic process|cellular metabolic process|generation of precursor metabolites and energy|electron transport chain|respiratory electron transport chain
biological_process|metabolic process|cellular metabolic process|generation of precursor metabolites and energy|electron transport chain|respiratory electron transport chain|ATP synthesis coupled electron transport
biological_process|metabolic process|cellular metabolic process|generation of precursor metabolites and energy|electron transport chain|respiratory electron transport chain|ATP synthesis coupled electron transport|mitochondrial ATP synthesis coupled electron transport
"biological_process|metabolic process|cellular metabolic process|generation of precursor metabolites and energy|electron transport chain|respiratory electron transport chain|mitochondrial electron transport, NADH to ubiquinone"
biological_process|metabolic process|cellular metabolic process|generation of precursor metabolites and energy|electron transport chain
biological_process|metabolic process|nitrogen compound metabolic process|cellular nitrogen compound metabolic process|cellular amide metabolic process|peptide metabolic process|peptide biosynthetic process
biological_process|metabolic process|nitrogen compound metabolic process|cellular nitrogen compound metabolic process|cellular amide metabolic process|peptide metabolic process
biological_process|metabolic process|nitrogen compound metabolic process|cellular nitrogen compound metabolic process|cellular amide metabolic process|amide biosynthetic process
biological_process|metabolic process|nitrogen compound metabolic process|cellular nitrogen compound metabolic process|cellular amide metabolic process
biological_process|metabolic process|nitrogen compound metabolic process|cellular nitrogen compound metabolic process|cellular nitrogen compound catabolic process
biological_process|metabolic process|cellular metabolic process|translational initiation
biological_process|metabolic process|cellular metabolic process|generation of precursor metabolites and energy|oxidative phosphorylation
biological_process|metabolic process|cellular metabolic process|cellular aromatic compound metabolic process|aromatic compound catabolic process
biological_process|metabolic process|catabolic process|cellular catabolic process|heterocycle catabolic process
biological_process|metabolic process|organic substance metabolic process|organic cyclic compound metabolic process|organic cyclic compound catabolic process


biological_process|cellular process|cellular component organization|cellular component assembly|protein-containing complex assembly|cellular protein-containing complex assembly|ribonucleoprotein complex assembly|ribosomal large subunit assembly
biological_process|cellular process|cellular component organization|cellular component assembly|protein-containing complex assembly|cellular protein-containing complex assembly|ribonucleoprotein complex assembly|ribosomal small subunit assembly
biological_process|cellular process|cellular component organization|cellular component assembly|protein-containing complex assembly|cellular protein-containing complex assembly|ribonucleoprotein complex assembly
biological_process|cellular process|cellular component organization|cellular component assembly|protein-containing complex assembly|cellular protein-containing complex assembly|ribonucleoprotein complex assembly|ribosome assembly
biological_process|cellular process|cellular component organization|cellular component assembly|protein-containing complex assembly|cellular protein-containing complex assembly
biological_process|cellular process|cellular component organization|cellular component assembly|protein-containing complex assembly|cellular protein-containing complex assembly|mitochondrial respiratory chain complex assembly
biological_process|cellular process|cellular component organization|cellular component assembly|protein-containing complex assembly|cellular protein-containing complex assembly|ribonucleoprotein complex assembly|mRNA splice site selection
biological_process|cellular process|cellular component organization|cellular component assembly|protein-containing complex assembly|cellular protein-containing complex assembly|NADH dehydrogenase complex assembly
biological_process|cellular process|cellular component organization|cellular component assembly|protein-containing complex assembly|cellular protein-containing complex assembly|NADH dehydrogenase complex assembly|mitochondrial respiratory chain complex I assembly
biological_process|cellular process|cellular component organization|cellular component assembly|protein-containing complex assembly|cellular protein-containing complex assembly|ribonucleoprotein complex assembly|spliceosomal complex assembly
biological_process|cellular process|cellular component organization|protein-containing complex subunit organization|ribonucleoprotein complex subunit organization
biological_process|cellular process|cellular component organization|organelle organization|mitochondrion organization

biological_process|cellular component organization or biogenesis|cellular component biogenesis|ribonucleoprotein complex biogenesis|ribosome biogenesis
biological_process|cellular component organization or biogenesis|cellular component biogenesis|ribonucleoprotein complex biogenesis|ribosomal large subunit biogenesis
biological_process|cellular component organization or biogenesis|cellular component biogenesis|ribonucleoprotein complex biogenesis|ribosomal small subunit biogenesis
biological_process|cellular component organization or biogenesis|cellular component biogenesis|ribonucleoprotein complex biogenesis

biological_process|biological regulation|regulation of biological process|regulation of metabolic process|regulation of macromolecule metabolic process|regulation of gene expression|regulation of mRNA processing
biological_process|biological regulation|regulation of biological process|regulation of metabolic process|regulation of macromolecule metabolic process|regulation of gene expression|regulation of RNA splicing
"biological_process|biological regulation|regulation of biological process|regulation of metabolic process|regulation of macromolecule metabolic process|regulation of gene expression|regulation of RNA splicing|regulation of mRNA splicing, via spliceosome|regulation of alternative mRNA splicing, via spliceosome"
"biological_process|biological regulation|regulation of biological process|regulation of metabolic process|regulation of macromolecule metabolic process|regulation of gene expression|regulation of RNA splicing|regulation of mRNA splicing, via spliceosome"