class
biological_process|biological regulation|regulation of biological process|regulation of metabolic process|regulation of macromolecule metabolic process|regulation of gene expression|posttranscriptional regulation of gene expression|regulation of translation|regulation of translational initiation
"biological_process|biological regulation|regulation of biological process|regulation of metabolic process|regulation of macromolecule metabolic process|regulation of gene expression|regulation of transcription, DNA-templated|regulation of transcription by RNA polymerase II|positive regulation of transcription by RNA polymerase II|positive regulation of transcription initiation from RNA polymerase II promoter"

biological_process|response to stimulus|response to stress|cellular response to stress|response to endoplasmic reticulum stress

biological_process|cellular process|cellular component organization|cellular component assembly|protein-containing complex assembly|cellular protein-containing complex assembly|proteasome assembly

biological_process|metabolic process|organic substance metabolic process|macromolecule metabolic process|protein metabolic process|protein modification process|cellular protein modification process|post-translational protein modification
biological_process|metabolic process|organic substance metabolic process|macromolecule metabolic process|macromolecule catabolic process|cellular macromolecule catabolic process