﻿ID,term
GO:0000165,signal transduction by protein phosphorylation
GO:0001558,regulation of cell growth
GO:0007423,sensory organ development
GO:0001654,sensory organ development
GO:0001667,ameboidal-type cell migration
GO:0001709,cell fate determination
GO:0002252,immune response
GO:0045321,immune response
GO:0006955,immune response
GO:0001775,immune response
GO:0002065,epithelial cell development
GO:0002066,epithelial cell development
GO:0002064,epithelial cell development
GO:0007444,post-embryonic animal organ development
GO:0007560,post-embryonic animal organ development
GO:0048563,post-embryonic animal organ development
GO:0009886,post-embryonic animal organ development
GO:0007552,post-embryonic animal organ development
GO:0048569,post-embryonic animal organ development
GO:0048707,post-embryonic animal organ development
GO:0002165,post-embryonic animal organ development
GO:0048534,immune system development
GO:0030097,immune system development
GO:0002520,immune system development
GO:0046649,leukocyte differentiation
GO:0002521,leukocyte differentiation
GO:0002682,regulation of immune system process
GO:0050865,regulation of cell activation
GO:0051249,regulation of cell activation
GO:0002694,regulation of cell activation
GO:0050867,positive regulation of cell activation
GO:0051251,positive regulation of cell activation
GO:0002696,positive regulation of cell activation
GO:0098657,import into cell
GO:0006897,import into cell
GO:0012501,cell death
GO:0008219,cell death
GO:0006915,cell death
GO:0042330,taxis
GO:0007409,taxis
GO:0007411,taxis
GO:0097485,taxis
GO:0061564,taxis
GO:0006935,taxis
GO:0007169,enzyme linked receptor protein signaling pathway
GO:0007167,enzyme linked receptor protein signaling pathway
GO:0007265,small GTPase mediated signal transduction
GO:0007264,small GTPase mediated signal transduction
GO:0007292,germ cell development
GO:0048477,germ cell development
GO:0007281,germ cell development
GO:0007435,exocrine system development
GO:0035272,exocrine system development
GO:0007431,exocrine system development
GO:0007476,wing disc development
GO:0035114,wing disc development
GO:0035120,wing disc development
GO:0035220,wing disc development
GO:0048737,wing disc development
GO:0007472,wing disc development
GO:0007474,imaginal disc-derived wing vein specification
GO:0008360,regulation of cell shape
GO:0042060,response to wounding
GO:0009611,response to wounding
GO:0009791,post-embryonic development
GO:0010256,positive regulation of protein modification process
GO:0045937,
GO:0042327,positive regulation of protein modification process
GO:0031401,positive regulation of protein modification process
GO:0001934,positive regulation of protein modification process
GO:0010562,positive regulation of protein modification process
GO:0010595,positive regulation of epithelial cell migration
GO:0010634,positive regulation of epithelial cell migration
GO:0010594,positive regulation of epithelial cell migration
GO:0090130,tissue migration
GO:0090132,tissue migration
GO:0010631;;,tissue migration
GO:0010632,regulation of epithelial cell migration
GO:0050769,positive regulation of cell development
GO:0051962,positive regulation of cell development
GO:0010720,positive regulation of cell development
GO:0050768,negative regulation of nervous system development
GO:0051961,negative regulation of nervous system development
GO:0010721,negative regulation of nervous system development
GO:0022604,regulation of cell morphogenesis
GO:0010769,regulation of cell morphogenesis
GO:0034762,regulation of transmembrane transport
GO:0010959,regulation of transmembrane transport
GO:0120035,regulation of cell projection organization
GO:0031344,regulation of cell projection organization
GO:0010975,regulation of cell projection organization
GO:0031346,positive regulation of cell projection organization
;GO:0045666,positive regulation of cell projection organization
GO:0010976,positive regulation of cell projection organization
GO:0014013,regulation of gliogenesis
GO:0014015,positive regulation of gliogenesis
GO:0014066,regulation of phosphatidylinositol 3-kinase signaling
GO:0014068,positive regulation of phosphatidylinositol 3-kinase signaling
GO:0016050,vesicle organization
GO:0016197,endosomal transport
GO:0048813,dendrite development
GO:0016358,dendrite development
GO:0018212,peptidyl-tyrosine modification
GO:0018108,peptidyl-tyrosine modification
GO:0019058,viral life cycle
GO:0022603,regulation of anatomical structure morphogenesis
GO:0030029,actin filament-based process
GO:0030036,actin filament-based process
GO:0042110,lymphocyte differentiation
GO:0030098,lymphocyte differentiation
GO:0030307,positive regulation of cell growth
GO:2000145,regulation of locomotion
GO:0040012,regulation of locomotion
GO:0051270,regulation of locomotion
GO:0030334,regulation of locomotion
GO:2000147,positive regulation of locomotion
GO:0040017,positive regulation of locomotion
GO:0051272,positive regulation of locomotion
GO:0030335,positive regulation of locomotion
GO:0030855,epithelial cell differentiation
GO:0045089,regulation of innate immune response
GO:0045088,regulation of innate immune response
GO:0031349,regulation of innate immune response
GO:0031532,actin cytoskeleton reorganization
GO:0032101,regulation of response to external stimulus
GO:0032103,positive regulation of response to external stimulus
GO:0008361,regulation of cellular component size
GO:0032535,regulation of cellular component size
GO:0000902,cell morphogenesis
GO:0000904,cell morphogenesis
GO:0048812,cell morphogenesis
GO:0120039,cell morphogenesis
GO:0048858,cell morphogenesis
GO:0031175,cell morphogenesis
GO:0048667,cell morphogenesis
GO:0032990,cell morphogenesis
GO:0048736,appendage development
GO:0035107,appendage development
GO:0002009,tube morphogenesis
GO:0060562,tube morphogenesis
GO:0035239,tube morphogenesis
GO:0048638,regulation of growth
GO:0040008,regulation of growth
GO:0043547,regulation of GTPase activity
GO:0043087,regulation of GTPase activity
GO:0051707,response to biotic stimulus
GO:0009617,response to biotic stimulus
GO:0009607,response to biotic stimulus
GO:0043410,regulation of MAPK cascade
GO:0043207,response to biotic stimulus
GO:0043269,regulation of ion transport
GO:0043408,regulation of MAPK cascade
GO:0043536,regulation of blood vessel endothelial cell migration
GO:0043535,regulation of blood vessel endothelial cell migration
GO:0043900,regulation of multi-organism process
GO:0043902,positive regulation of multi-organism process
GO:0044089,positive regulation of cellular component biogenesis
GO:0045087,innate immune response
GO:0045165,cell fate commitment
GO:0045597,positive regulation of cell differentiation
GO:0050767,regulation of neurogenesis
GO:0045664,regulation of neurogenesis
GO:0045685,regulation of glial cell differentiation
GO:1904018,positive regulation of vasculature development
GO:0045766,positive regulation of vasculature development
GO:0048639,positive regulation of growth
GO:0045927,positive regulation of growth
GO:0051056,regulation of small GTPase mediated signal transduction
GO:0046578,regulation of small GTPase mediated signal transduction
GO:0048008,platelet-derived growth factor receptor signaling pathway
GO:0048010,vascular endothelial growth factor receptor signaling pathway
GO:0048013,ephrin receptor signaling pathway
GO:0048814,regulation of dendrite morphogenesis
GO:0050770,regulation of axonogenesis
GO:0050773,regulation of dendrite development
GO:0002684,regulation of immune response
GO:0050778,regulation of immune response
GO:0050807,regulation of synapse structure or activity
GO:0050776,regulation of immune response
GO:0050803,regulation of synapse structure or activity
GO:0051050,positive regulation of transport
GO:0051336,regulation of hydrolase activity
GO:0051301,cell division
GO:0051345,regulation of hydrolase activity
GO:0051493,regulation of cytoskeleton organization
GO:0060341,regulation of cellular localization
GO:0060541,respiratory system development
GO:0060627,regulation of vesicle-mediated transport
GO:0070372,regulation of ERK1 and ERK2 cascade
GO:0070374,positive regulation of ERK1 and ERK2 cascade
GO:0071363,response to growth factor
GO:0070848,response to growth factor
GO:1901699,cellular response to nitrogen compound
GO:0071417,cellular response to nitrogen compound
GO:0071495,cellular response to endogenous stimulus
GO:0071695,anatomical structure maturation
GO:0090066,regulation of anatomical structure size
GO:1901701,cellular response to oxygen-containing compound
GO:1902115,regulation of organelle assembly
GO:1902533,positive regulation of intracellular signal transduction
GO:1903706,regulation of hemopoiesis
GO:1903827,regulation of cellular protein localization
GO:0023014,signal transduction by protein phosphorylation