{
    "read_files": "( /dev/fd/63, /dev/fd/62 )",
    "expected_format": "IU",
    "compatible_fragment_ratio": 0.9946167283219904,
    "num_compatible_fragments": 13099899,
    "num_assigned_fragments": 13170801,
    "num_consistent_mappings": 11998004,
    "num_inconsistent_mappings": 2159599,
    "strand_mapping_bias": 0.5002888813839369,
    "MSF": 0,
    "OSF": 7705,
    "ISF": 5995536,
    "MSR": 0,
    "OSR": 7548,
    "ISR": 6002468,
    "SF": 1044229,
    "SR": 1043130,
    "MU": 0,
    "OU": 0,
    "IU": 0,
    "U": 0
}