"","moduleColors","Freq"
"1","black",1078
"2","blue",2442
"3","brown",1861
"4","cyan",716
"5","darkgreen",351
"6","darkgrey",244
"7","darkred",380
"8","darkturquoise",1078
"9","green",1121
"10","greenyellow",771
"11","grey",675
"12","grey60",621
"13","lightcyan",658
"14","lightgreen",1519
"15","lightyellow",480
"16","midnightblue",662
"17","pink",1008
"18","purple",929
"19","red",1112
"20","royalblue",468
"21","tan",748
"22","turquoise",2526
"23","yellow",1216
