"","delta.rank","pval","level","nseqs","term","name","p.adj"
"95",0,7.87037903050102e-06,2,82,"GO:0003774;GO:0003777","motor activity",0
"169",0,2.98599391444834e-09,2,12,"GO:0004550","nucleoside diphosphate kinase activity",0
"340",0,4.73467579545889e-15,5,183,"GO:0008017;GO:0015631","tubulin binding",0
"350",0,5.27725042953059e-09,3,494,"GO:0008092","cytoskeletal protein binding",0
"426",0,3.8709060600454e-08,2,28,"GO:0008569;GO:0045503","dynein light chain binding",0
"554",0,8.01576956147811e-06,3,39,"GO:0016776;GO:0019205","nucleobase-containing compound kinase activity",0
"584",0,9.33520628969062e-06,2,40,"GO:0016879","ligase activity, forming carbon-nitrogen bonds",0
"585",0,2.17823671614281e-07,2,22,"GO:0016881","acid-amino acid ligase activity",0
"837",0,6.39116771704172e-06,2,22,"GO:0043014","alpha-tubulin binding",0
"881",0,6.89438969631116e-08,3,10,"GO:0045504","dynein heavy chain binding",0
"882",0,2.04617811848007e-07,3,35,"GO:0045505","dynein intermediate chain binding",0
"957",0,2.93309942398642e-08,3,27,"GO:0051959","dynein light intermediate chain binding",0
"1004",0,2.85783413513718e-06,3,9,"GO:0070735","protein-glycine ligase activity",0
"1005",0,1.60316040210773e-06,3,8,"GO:0070739;GO:0070740","protein-glutamic acid ligase activity",0
