"","delta.rank","pval","level","nseqs","term","name","p.adj"
"30",0,1.75866505272328e-07,5,23,"GO:0000322;GO:0000324;GO:0000329","storage vacuole",0
"93",0,1.40805992743293e-14,3,35,"GO:0005618;GO:0030312","external encapsulating structure",0
"148",0,2.27668987405796e-08,2,202,"GO:0005774;GO:0098852;GO:0005765","vacuolar membrane",0
"180",0,3.86908479129583e-48,2,346,"GO:0005840;GO:0044391;GO:0022626;GO:0044445","cytosolic part",0
"181",0,1.5356107832953e-15,2,75,"GO:0005844","polysome",0
"245",0,3.00373513579404e-08,2,19,"GO:0009277","fungal-type cell wall",0
"247",0,1.21075247783183e-07,3,10,"GO:0009506;GO:0055044","plasmodesma",0
"248",0,6.92758249789873e-12,4,17,"GO:0009507;GO:0009536","chloroplast",0
"262",0,1.11936428075267e-29,2,129,"GO:0015934;GO:0022625","large ribosomal subunit",0
"263",0,5.40757197486255e-19,2,93,"GO:0015935;GO:0022627","small ribosomal subunit",0
"281",0,7.78253196540879e-06,3,36,"GO:0016469","proton-transporting two-sector ATPase complex",0
"343",0,4.96558289334625e-08,2,9,"GO:0030445","yeast-form cell wall",0
"344",0,2.59793124785571e-07,2,11,"GO:0030446","hyphal cell wall",0
"413",0,1.54801760784613e-05,4,51,"GO:0031430;GO:0031672","A band",0
"551",0,1.22278597303535e-12,4,31,"GO:0042788","polysomal ribosome",0
"565",0,1.06350421961253e-05,2,136,"GO:0043209","myelin sheath",0
"642",0,1.08058060220848e-05,3,6,"GO:0062039;GO:0062040","biofilm matrix",0
