{
    "salmon_version": "0.9.1",
    "index": "Loph_transcripts_index",
    "threads": "80",
    "libType": "A",
    "mates1": "/dev/fd/63",
    "mates2": "/dev/fd/62",
    "output": "Exp2T1WAFd144_1.fq.gz_quant",
    "auxDir": "aux_info"
}