{
    "read_files": "( /dev/fd/63, /dev/fd/62 )",
    "expected_format": "IU",
    "compatible_fragment_ratio": 0.9950692079978992,
    "num_compatible_fragments": 14168680,
    "num_assigned_fragments": 14238889,
    "num_consistent_mappings": 12943342,
    "num_inconsistent_mappings": 2226059,
    "strand_mapping_bias": 0.5005093738541406,
    "MSF": 0,
    "OSF": 9311,
    "ISF": 6465078,
    "MSR": 0,
    "OSR": 9436,
    "ISR": 6478264,
    "SF": 1075677,
    "SR": 1078906,
    "MU": 0,
    "OU": 0,
    "IU": 0,
    "U": 0
}